…
``` r
# Question 1

i2 <-rename(iris, sepal_length = Sepal.Length,
       sepal_width = Sepal.Width,
       petal_length = Petal.Length,
       petal_width = Petal.Width,
       species = Species)

i2
```

    ## # A tibble: 150 x 5
    ##    sepal_length sepal_width petal_length petal_width species
    ##           <dbl>       <dbl>        <dbl>       <dbl> <fct>  
    ##  1          5.1         3.5          1.4         0.2 setosa 
    ##  2          4.9         3            1.4         0.2 setosa 
    ##  3          4.7         3.2          1.3         0.2 setosa 
    ##  4          4.6         3.1          1.5         0.2 setosa 
    ##  5          5           3.6          1.4         0.2 setosa 
    ##  6          5.4         3.9          1.7         0.4 setosa 
    ##  7          4.6         3.4          1.4         0.3 setosa 
    ##  8          5           3.4          1.5         0.2 setosa 
    ##  9          4.4         2.9          1.4         0.2 setosa 
    ## 10          4.9         3.1          1.5         0.1 setosa 
    ## # ... with 140 more rows
Convert the four numerical variables from cm to mm by multiplying by 10.
Print the resulting table.

``` r
#question 2

ni2 <-mutate(i2, sepal_length = sepal_length * 10,
       sepal_width = sepal_width * 10,
       petal_length = petal_length * 10,
       petal_width = petal_width * 10)

ni2
```

    ## # A tibble: 150 x 5
    ##    sepal_length sepal_width petal_length petal_width species
    ##           <dbl>       <dbl>        <dbl>       <dbl> <fct>  
    ##  1           51          35           14           2 setosa 
    ##  2           49          30           14           2 setosa 
    ##  3           47          32           13           2 setosa 
    ##  4           46          31           15           2 setosa 
    ##  5           50          36           14           2 setosa 
    ##  6           54          39           17           4 setosa 
    ##  7           46          34           14           3 setosa 
    ##  8           50          34           15           2 setosa 
    ##  9           44          29           14           2 setosa 
    ## 10           49          31           15           1 setosa 
    ## # ... with 140 more rows

Calculate sepal area and petal area (area is equal to length multiplied
by width). Print a table with only the variables sepal area, petal area,
and species.

``` r
#question 3

ia1 <-mutate(ni2, sepal_area = sepal_length * sepal_width,
       petal_area = petal_length * petal_width)

select(ia1, petal_area, sepal_area)
```

    ## # A tibble: 150 x 2
    ##    petal_area sepal_area
    ##         <dbl>      <dbl>
    ##  1         28       1785
    ##  2         28       1470
    ##  3         26       1504
    ##  4         30       1426
    ##  5         28       1800
    ##  6         68       2106
    ##  7         42       1564
    ##  8         30       1700
    ##  9         28       1276
    ## 10         15       1519
    ## # ... with 140 more rows
…
